TestCreationAction 1639381014988 GameTest.java ADD void testStrikeAsTheLastFrame()/2 METHOD ADD void testStrikeAsTheLastFrame()/2 METHOD
TestCreationAction 1639381027270 GameTest.java RENAME testStrikeAsTheLastFrame()/2=>void testBestScore() METHOD RENAME testStrikeAsTheLastFrame()/2=>void testBestScore() METHOD
TestCreationAction 1639381102240 GameTest.java CHANGE GameTest.java CLASS CHANGE GameTest.java CLASS
EditAction 1639381102240 GameTest.java 8032 10 220 10
EditAction 1639381102470 GameTest.java 8032 10 220 10
TestFailureAction 1639381108740 GameTest.java FAIL
TestFailureAction 1639381121622 bsk.java FAIL
CodeEditingAction 1639381383265 Game.java ADD int count/2 FIELD
CodeEditingAction 1639381385303 Game.java RENAME count/2=>int countStrike FIELD
CodeEditingAction 1639381449199 Game.java CHANGE Game.java CLASS
EditAction 1639381449199 Game.java 7003 8 41 0
EditAction 1639381449323 Game.java 7003 8 41 0
EditAction 1639381449339 GameTest.java 8032 10 220 10
CodeEditingAction 1639383310750 Game.java CHANGE Game.java CLASS
EditAction 1639383310751 Game.java 7649 8 40 0
EditAction 1639383310897 Game.java 7649 8 40 0
CodeEditingAction 1639383375230 Game.java CHANGE Game.java CLASS
EditAction 1639383375230 Game.java 7643 8 40 0
TestFailureAction 1639383438259 bsk.java FAIL
EditAction 1639383733815 Game.java 7643 8 40 0
EditAction 1639383733823 Game.java 7643 8 40 0
EditAction 1639383733938 Game.java 7643 8 40 0
EditAction 1639383738056 Game.java 7643 8 40 0
EditAction 1639383738061 Game.java 7643 8 40 0
EditAction 1639383738087 Game.java 7643 8 40 0
EditAction 1639383738876 Game.java 7643 8 40 0
EditAction 1639383738884 Game.java 7643 8 40 0
EditAction 1639383739247 Game.java 7643 8 40 0
EditAction 1639383769011 Game.java 7643 8 40 0
EditAction 1639383769511 Game.java 7643 8 40 0
EditAction 1639383805877 Game.java 7643 8 40 0
EditAction 1639383805883 Game.java 7643 8 40 0
EditAction 1639383805888 Game.java 7643 8 40 0
EditAction 1639383805900 Game.java 7643 8 40 0
EditAction 1639383807623 Game.java 7643 8 40 0
EditAction 1639383807632 Game.java 7643 8 40 0
EditAction 1639383807750 Game.java 7643 8 40 0
EditAction 1639383813518 Game.java 7643 8 40 0
EditAction 1639383814088 Game.java 7643 8 40 0
EditAction 1639383848872 Game.java 7643 8 40 0
EditAction 1639383848879 Game.java 7643 8 40 0
EditAction 1639383848986 Game.java 7643 8 40 0
EditAction 1639383851205 Game.java 7643 8 40 0
EditAction 1639383851213 Game.java 7643 8 40 0
EditAction 1639383851217 Game.java 7643 8 40 0
EditAction 1639383851221 Game.java 7643 8 40 0
EditAction 1639383851226 Game.java 7643 8 40 0
EditAction 1639383851237 Game.java 7643 8 40 0
EditAction 1639383851345 Game.java 7643 8 40 0
EditAction 1639383855815 Game.java 7643 8 40 0
EditAction 1639383856401 Game.java 7643 8 40 0
EditAction 1639383861305 Game.java 7643 8 40 0
EditAction 1639383861316 Game.java 7643 8 40 0
EditAction 1639383861431 Game.java 7643 8 40 0
EditAction 1639383861972 Game.java 7643 8 40 0
EditAction 1639383861979 Game.java 7643 8 40 0
EditAction 1639383861985 Game.java 7643 8 40 0
EditAction 1639383861989 Game.java 7643 8 40 0
EditAction 1639383861993 Game.java 7643 8 40 0
EditAction 1639383861997 Game.java 7643 8 40 0
EditAction 1639383862009 Game.java 7643 8 40 0
EditAction 1639383862449 Game.java 7643 8 40 0
EditAction 1639383869054 Game.java 7643 8 40 0
EditAction 1639383869753 Game.java 7643 8 40 0
EditAction 1639383911109 Game.java 7643 8 40 0
EditAction 1639383911117 Game.java 7643 8 40 0
EditAction 1639383911122 Game.java 7643 8 40 0
EditAction 1639383911126 Game.java 7643 8 40 0
EditAction 1639383911132 Game.java 7643 8 40 0
EditAction 1639383911136 Game.java 7643 8 40 0
EditAction 1639383911147 Game.java 7643 8 40 0
EditAction 1639383915592 Game.java 7643 8 40 0
EditAction 1639383921928 Game.java 7643 8 40 0
EditAction 1639383922509 Game.java 7643 8 40 0
EditAction 1639383987433 Game.java 7643 8 40 0
EditAction 1639383987439 Game.java 7643 8 40 0
EditAction 1639383987445 Game.java 7643 8 40 0
EditAction 1639383987451 Game.java 7643 8 40 0
EditAction 1639383987457 Game.java 7643 8 40 0
EditAction 1639383987462 Game.java 7643 8 40 0
EditAction 1639383987466 Game.java 7643 8 40 0
EditAction 1639383987478 Game.java 7643 8 40 0
TestFailureAction 1639384176386 GameTest.java FAIL
EditAction 1639385707874 Game.java 7643 8 40 0
EditAction 1639385707883 Game.java 7643 8 40 0
EditAction 1639385707989 Game.java 7643 8 40 0
EditAction 1639385710178 Game.java 7643 8 40 0
EditAction 1639385710187 Game.java 7643 8 40 0
EditAction 1639385710193 Game.java 7643 8 40 0
EditAction 1639385710198 Game.java 7643 8 40 0
EditAction 1639385710203 Game.java 7643 8 40 0
EditAction 1639385710209 Game.java 7643 8 40 0
EditAction 1639385710213 Game.java 7643 8 40 0
EditAction 1639385710224 Game.java 7643 8 40 0
CodeEditingAction 1639385948043 Game.java CHANGE Game.java CLASS
EditAction 1639385948043 Game.java 7660 8 40 0
TestFailureAction 1639385957901 GameTest.java FAIL
CodeEditingAction 1639386872555 Game.java CHANGE Game.java CLASS
EditAction 1639386872556 Game.java 7662 8 40 0
TestFailureAction 1639386886091 GameTest.java FAIL
CodeEditingAction 1639387587317 Game.java CHANGE Game.java CLASS
EditAction 1639387587317 Game.java 7673 8 40 0
CodeEditingAction 1639387723712 Game.java CHANGE Game.java CLASS
EditAction 1639387723712 Game.java 7674 8 40 0
TestPassAction 1639387726781 GameTest.java OK
TestPassAction 1639387740704 bsk.java OK
TestEditingAction 1639387973155 GameTest.java CHANGE GameTest.java CLASS CHANGE GameTest.java CLASS
EditAction 1639387973156 GameTest.java 8032 10 220 10
EditAction 1639387973291 GameTest.java 8032 10 220 10
TestEditingAction 1639387987074 GameTest.java CHANGE GameTest.java CLASS CHANGE GameTest.java CLASS
EditAction 1639387987075 GameTest.java 8032 10 220 10
EditAction 1639387987202 GameTest.java 8032 10 220 10
TestFailureAction 1639387992884 bsk.java FAIL
CodeEditingAction 1639388511279 Game.java CHANGE Game.java CLASS
EditAction 1639388511279 Game.java 7762 8 40 0
CodeEditingAction 1639388563444 Game.java CHANGE Game.java CLASS
EditAction 1639388563445 Game.java 7850 8 40 0
TestFailureAction 1639388569141 bsk.java FAIL
TestEditingAction 1639388678601 GameTest.java CHANGE GameTest.java CLASS CHANGE GameTest.java CLASS
EditAction 1639388678602 GameTest.java 8032 10 220 10
EditAction 1639388678732 GameTest.java 8032 10 220 10
TestFailureAction 1639388681389 bsk.java FAIL
TestEditingAction 1639388733924 GameTest.java CHANGE GameTest.java CLASS CHANGE GameTest.java CLASS
EditAction 1639388733925 GameTest.java 8032 10 220 10
EditAction 1639388734070 GameTest.java 8032 10 220 10
TestFailureAction 1639388736744 bsk.java FAIL
TestEditingAction 1639388963188 GameTest.java CHANGE GameTest.java CLASS CHANGE GameTest.java CLASS
EditAction 1639388963188 GameTest.java 8032 10 220 10
EditAction 1639388963310 GameTest.java 8032 10 220 10
TestPassAction 1639388966295 bsk.java OK
TestEditingAction 1639388990459 GameTest.java CHANGE GameTest.java CLASS CHANGE GameTest.java CLASS
EditAction 1639388990460 GameTest.java 8032 10 220 10
EditAction 1639388990582 GameTest.java 8032 10 220 10
TestFailureAction 1639388994195 bsk.java FAIL
TestEditingAction 1639389073747 GameTest.java CHANGE GameTest.java CLASS CHANGE GameTest.java CLASS
EditAction 1639389073748 GameTest.java 8032 10 220 10
EditAction 1639389073883 GameTest.java 8032 10 220 10
TestEditingAction 1639389350735 GameTest.java CHANGE GameTest.java CLASS CHANGE GameTest.java CLASS
EditAction 1639389350736 GameTest.java 8032 10 220 10
EditAction 1639389350873 GameTest.java 8032 10 220 10
TestPassAction 1639389354003 bsk.java OK
TestEditingAction 1639389379913 GameTest.java CHANGE GameTest.java CLASS CHANGE GameTest.java CLASS
EditAction 1639389379914 GameTest.java 8032 10 220 10
EditAction 1639389380053 GameTest.java 8032 10 220 10
TestEditingAction 1639389414065 GameTest.java CHANGE GameTest.java CLASS CHANGE GameTest.java CLASS
EditAction 1639389414065 GameTest.java 8032 10 220 10
EditAction 1639389414204 GameTest.java 8032 10 220 10
TestPassAction 1639389417145 bsk.java OK
TestEditingAction 1639389654186 GameTest.java CHANGE GameTest.java CLASS CHANGE GameTest.java CLASS
EditAction 1639389654186 GameTest.java 8032 10 220 10
EditAction 1639389654313 GameTest.java 8032 10 220 10
TestPassAction 1639389777745 bsk.java OK
TestPassAction 1639389964216 bsk.java OK
TestPassAction 1639390101195 bsk.java OK
CodeEditingAction 1639390435474 Game.java CHANGE Frame frame1 FIELD
CodeEditingAction 1639390441038 Game.java CHANGE Frame frame2 FIELD
CodeEditingAction 1639390445591 Game.java CHANGE Frame frame3 FIELD
CodeEditingAction 1639390455250 Game.java CHANGE Frame frame4 FIELD
CodeEditingAction 1639390456281 Game.java CHANGE Frame frame5 FIELD
CodeEditingAction 1639390457805 Game.java CHANGE Frame frame6 FIELD
CodeEditingAction 1639390458821 Game.java CHANGE Frame frame7 FIELD
CodeEditingAction 1639390459852 Game.java CHANGE Frame frame8 FIELD
CodeEditingAction 1639390461392 Game.java CHANGE Frame frame9 FIELD
CodeEditingAction 1639390462411 Game.java CHANGE Frame frame10 FIELD
CodeEditingAction 1639390463960 Game.java CHANGE int count FIELD
CodeEditingAction 1639390569477 Game.java CHANGE Game.java CLASS
EditAction 1639390569478 Game.java 7987 8 42 0
EditAction 1639390569606 GameTest.java 8032 10 220 10
CodeEditingAction 1639390615288 Game.java CHANGE int count FIELD
CodeEditingAction 1639390626881 Game.java CHANGE Frame frame7 FIELD
CodeEditingAction 1639390626881 Game.java CHANGE Frame frame8 FIELD
CodeEditingAction 1639390626881 Game.java CHANGE Frame frame9 FIELD
CodeEditingAction 1639390626881 Game.java CHANGE Frame frame10 FIELD
CodeEditingAction 1639390631446 Game.java CHANGE Frame frame1 FIELD
CodeEditingAction 1639390631446 Game.java CHANGE Frame frame2 FIELD
CodeEditingAction 1639390631446 Game.java CHANGE Frame frame3 FIELD
CodeEditingAction 1639390631446 Game.java CHANGE Frame frame4 FIELD
CodeEditingAction 1639390631446 Game.java CHANGE Frame frame5 FIELD
CodeEditingAction 1639390631446 Game.java CHANGE Frame frame6 FIELD
CodeEditingAction 1639390659510 Game.java CHANGE Game.java CLASS
EditAction 1639390659510 Game.java 7850 8 40 0
EditAction 1639390659643 GameTest.java 8032 10 220 10
TestPassAction 1639390664424 bsk.java OK
CodeEditingAction 1639390739399 Game.java CHANGE Frame frame1 FIELD
CodeEditingAction 1639390740926 Game.java CHANGE Frame frame2 FIELD
CodeEditingAction 1639390742475 Game.java CHANGE Frame frame3 FIELD
CodeEditingAction 1639390742475 Game.java CHANGE Frame frame4 FIELD
CodeEditingAction 1639390743997 Game.java CHANGE Frame frame5 FIELD
CodeEditingAction 1639390745009 Game.java CHANGE Frame frame6 FIELD
CodeEditingAction 1639390746039 Game.java CHANGE Frame frame7 FIELD
CodeEditingAction 1639390747558 Game.java CHANGE Frame frame8 FIELD
CodeEditingAction 1639390749604 Game.java CHANGE Frame frame9 FIELD
CodeEditingAction 1639390750619 Game.java CHANGE Frame frame10 FIELD
CodeEditingAction 1639390752147 Game.java CHANGE int count FIELD
CodeEditingAction 1639390753237 Game.java CHANGE Game.java CLASS
EditAction 1639390753237 Game.java 7987 8 42 0
EditAction 1639390753358 GameTest.java 8032 10 220 10
CodeEditingAction 1639390821612 Game.java CHANGE Frame frame1 FIELD
CodeEditingAction 1639390821612 Game.java CHANGE Frame frame2 FIELD
CodeEditingAction 1639390821612 Game.java CHANGE Frame frame3 FIELD
CodeEditingAction 1639390821612 Game.java CHANGE Frame frame4 FIELD
CodeEditingAction 1639390821612 Game.java CHANGE Frame frame5 FIELD
CodeEditingAction 1639390821612 Game.java CHANGE Frame frame6 FIELD
CodeEditingAction 1639390821612 Game.java CHANGE Frame frame7 FIELD
CodeEditingAction 1639390821612 Game.java CHANGE Frame frame8 FIELD
CodeEditingAction 1639390821612 Game.java CHANGE Frame frame9 FIELD
CodeEditingAction 1639390821612 Game.java CHANGE Frame frame10 FIELD
CodeEditingAction 1639390821612 Game.java CHANGE int count FIELD
CodeEditingAction 1639390841243 Game.java CHANGE Game.java CLASS
EditAction 1639390841244 Game.java 7850 8 40 0
EditAction 1639390841379 GameTest.java 8032 10 220 10
TestPassAction 1639390844483 bsk.java OK
